%YAML 1.1
%TAG !u! tag:unity3d.com,2011:
--- !u!114 &11400000
MonoBehaviour:
  m_ObjectHideFlags: 0
  m_CorrespondingSourceObject: {fileID: 0}
  m_PrefabInstance: {fileID: 0}
  m_PrefabAsset: {fileID: 0}
  m_GameObject: {fileID: 0}
  m_Enabled: 1
  m_EditorHideFlags: 0
  m_Script: {fileID: 11500000, guid: 7e35ba8a5b66b0f428630179bef9bba9, type: 3}
  m_Name: Boy_clothes3
  m_EditorClassIdentifier: 
  clothes: {fileID: 7504424219823263869, guid: 70893e64c41e97e4aac2c470a9e55628, type: 3}
