%YAML 1.1
%TAG !u! tag:unity3d.com,2011:
--- !u!1 &359801420534066874
GameObject:
  m_ObjectHideFlags: 0
  m_CorrespondingSourceObject: {fileID: 0}
  m_PrefabInstance: {fileID: 0}
  m_PrefabAsset: {fileID: 0}
  serializedVersion: 6
  m_Component:
  - component: {fileID: 7996792487782678245}
  m_Layer: 0
  m_Name: Weapon Holder
  m_TagString: Untagged
  m_Icon: {fileID: 0}
  m_NavMeshLayer: 0
  m_StaticEditorFlags: 0
  m_IsActive: 1
--- !u!4 &7996792487782678245
Transform:
  m_ObjectHideFlags: 0
  m_CorrespondingSourceObject: {fileID: 0}
  m_PrefabInstance: {fileID: 0}
  m_PrefabAsset: {fileID: 0}
  m_GameObject: {fileID: 359801420534066874}
  m_LocalRotation: {x: 0, y: 0, z: 0, w: 1}
  m_LocalPosition: {x: -0.08, y: 0.448, z: -0}
  m_LocalScale: {x: 1, y: 1, z: 1}
  m_Children: []
  m_Father: {fileID: 4312668131003721282}
  m_RootOrder: 5
  m_LocalEulerAnglesHint: {x: 0, y: 0, z: 0}
--- !u!1 &3350685410485799839
GameObject:
  m_ObjectHideFlags: 0
  m_CorrespondingSourceObject: {fileID: 0}
  m_PrefabInstance: {fileID: 0}
  m_PrefabAsset: {fileID: 0}
  serializedVersion: 6
  m_Component:
  - component: {fileID: 2659381130729185279}
  m_Layer: 0
  m_Name: Girl_handler
  m_TagString: Player
  m_Icon: {fileID: 0}
  m_NavMeshLayer: 0
  m_StaticEditorFlags: 0
  m_IsActive: 1
--- !u!4 &2659381130729185279
Transform:
  m_ObjectHideFlags: 0
  m_CorrespondingSourceObject: {fileID: 0}
  m_PrefabInstance: {fileID: 0}
  m_PrefabAsset: {fileID: 0}
  m_GameObject: {fileID: 3350685410485799839}
  m_LocalRotation: {x: 0, y: 0, z: 0, w: 1}
  m_LocalPosition: {x: 0.010000002, y: 0.945, z: -9.018274}
  m_LocalScale: {x: 1, y: 1, z: 1}
  m_Children:
  - {fileID: 4312668131003721282}
  m_Father: {fileID: 0}
  m_RootOrder: 0
  m_LocalEulerAnglesHint: {x: 0, y: 0, z: 0}
--- !u!1001 &8233454038565358706
PrefabInstance:
  m_ObjectHideFlags: 0
  serializedVersion: 2
  m_Modification:
    m_TransformParent: {fileID: 2659381130729185279}
    m_Modifications:
    - target: {fileID: 9205902838980974627, guid: c583cc2ef5bed455187c4f0613e56e96,
        type: 3}
      propertyPath: m_Name
      value: Girl_pose
      objectReference: {fileID: 0}
    - target: {fileID: 9205902838980974627, guid: c583cc2ef5bed455187c4f0613e56e96,
        type: 3}
      propertyPath: m_TagString
      value: Untagged
      objectReference: {fileID: 0}
    - target: {fileID: 5303751637426137648, guid: c583cc2ef5bed455187c4f0613e56e96,
        type: 3}
      propertyPath: m_LocalPosition.x
      value: -0.010000002
      objectReference: {fileID: 0}
    - target: {fileID: 5303751637426137648, guid: c583cc2ef5bed455187c4f0613e56e96,
        type: 3}
      propertyPath: m_LocalPosition.y
      value: -0.457
      objectReference: {fileID: 0}
    - target: {fileID: 5303751637426137648, guid: c583cc2ef5bed455187c4f0613e56e96,
        type: 3}
      propertyPath: m_LocalPosition.z
      value: -0.02
      objectReference: {fileID: 0}
    - target: {fileID: 5303751637426137648, guid: c583cc2ef5bed455187c4f0613e56e96,
        type: 3}
      propertyPath: m_LocalRotation.x
      value: 0
      objectReference: {fileID: 0}
    - target: {fileID: 5303751637426137648, guid: c583cc2ef5bed455187c4f0613e56e96,
        type: 3}
      propertyPath: m_LocalRotation.y
      value: 0
      objectReference: {fileID: 0}
    - target: {fileID: 5303751637426137648, guid: c583cc2ef5bed455187c4f0613e56e96,
        type: 3}
      propertyPath: m_LocalRotation.z
      value: 0
      objectReference: {fileID: 0}
    - target: {fileID: 5303751637426137648, guid: c583cc2ef5bed455187c4f0613e56e96,
        type: 3}
      propertyPath: m_LocalRotation.w
      value: 1
      objectReference: {fileID: 0}
    - target: {fileID: 5303751637426137648, guid: c583cc2ef5bed455187c4f0613e56e96,
        type: 3}
      propertyPath: m_RootOrder
      value: 0
      objectReference: {fileID: 0}
    - target: {fileID: 5303751637426137648, guid: c583cc2ef5bed455187c4f0613e56e96,
        type: 3}
      propertyPath: m_LocalEulerAnglesHint.x
      value: 0
      objectReference: {fileID: 0}
    - target: {fileID: 5303751637426137648, guid: c583cc2ef5bed455187c4f0613e56e96,
        type: 3}
      propertyPath: m_LocalEulerAnglesHint.y
      value: 0
      objectReference: {fileID: 0}
    - target: {fileID: 5303751637426137648, guid: c583cc2ef5bed455187c4f0613e56e96,
        type: 3}
      propertyPath: m_LocalEulerAnglesHint.z
      value: 0
      objectReference: {fileID: 0}
    - target: {fileID: 4521074758190809167, guid: c583cc2ef5bed455187c4f0613e56e96,
        type: 3}
      propertyPath: m_IsActive
      value: 1
      objectReference: {fileID: 0}
    - target: {fileID: 7116437030938085295, guid: c583cc2ef5bed455187c4f0613e56e96,
        type: 3}
      propertyPath: m_Enabled
      value: 1
      objectReference: {fileID: 0}
    m_RemovedComponents: []
  m_SourcePrefab: {fileID: 100100000, guid: c583cc2ef5bed455187c4f0613e56e96, type: 3}
--- !u!4 &4312668131003721282 stripped
Transform:
  m_CorrespondingSourceObject: {fileID: 5303751637426137648, guid: c583cc2ef5bed455187c4f0613e56e96,
    type: 3}
  m_PrefabInstance: {fileID: 8233454038565358706}
  m_PrefabAsset: {fileID: 0}
