%YAML 1.1
%TAG !u! tag:unity3d.com,2011:
--- !u!114 &11400000
MonoBehaviour:
  m_ObjectHideFlags: 0
  m_CorrespondingSourceObject: {fileID: 0}
  m_PrefabInstance: {fileID: 0}
  m_PrefabAsset: {fileID: 0}
  m_GameObject: {fileID: 0}
  m_Enabled: 1
  m_EditorHideFlags: 0
  m_Script: {fileID: 11500000, guid: 854717a0958ffc44fb9a274415600e2a, type: 3}
  m_Name: SkinColor1
  m_EditorClassIdentifier: 
  indx: 01000000
  skinColor: {r: 0.9921569, g: 0.8980393, b: 0.8313726, a: 0}
