%YAML 1.1
%TAG !u! tag:unity3d.com,2011:
--- !u!114 &11400000
MonoBehaviour:
  m_ObjectHideFlags: 0
  m_CorrespondingSourceObject: {fileID: 0}
  m_PrefabInstance: {fileID: 0}
  m_PrefabAsset: {fileID: 0}
  m_GameObject: {fileID: 0}
  m_Enabled: 1
  m_EditorHideFlags: 0
  m_Script: {fileID: 11500000, guid: 854717a0958ffc44fb9a274415600e2a, type: 3}
  m_Name: SkinColor6
  m_EditorClassIdentifier: 
  indx: 06000000
  skinColor: {r: 0.7176471, g: 0.34117648, b: 0.21568629, a: 1}
