%YAML 1.1
%TAG !u! tag:unity3d.com,2011:
--- !u!114 &11400000
MonoBehaviour:
  m_ObjectHideFlags: 0
  m_CorrespondingSourceObject: {fileID: 0}
  m_PrefabInstance: {fileID: 0}
  m_PrefabAsset: {fileID: 0}
  m_GameObject: {fileID: 0}
  m_Enabled: 1
  m_EditorHideFlags: 0
  m_Script: {fileID: 11500000, guid: de4a2b26b9d197848bdd3e375c35d6ad, type: 3}
  m_Name: HairColor4
  m_EditorClassIdentifier: 
  indx: 0d000000
  hairColor: {r: 0.9921569, g: 0.90196085, b: 0.82745105, a: 0}
