%YAML 1.1
%TAG !u! tag:unity3d.com,2011:
--- !u!114 &11400000
MonoBehaviour:
  m_ObjectHideFlags: 0
  m_CorrespondingSourceObject: {fileID: 0}
  m_PrefabInstance: {fileID: 0}
  m_PrefabAsset: {fileID: 0}
  m_GameObject: {fileID: 0}
  m_Enabled: 1
  m_EditorHideFlags: 0
  m_Script: {fileID: 11500000, guid: f8dbc97ad319db74b931db2d9ea387a0, type: 3}
  m_Name: Eyebrows_5
  m_EditorClassIdentifier: 
  indx: 2c000000320000003300000034000000
  mat: {fileID: 2100000, guid: 4e6e61b9968c5452d9558a411f062941, type: 2}
