%YAML 1.1
%TAG !u! tag:unity3d.com,2011:
--- !u!114 &11400000
MonoBehaviour:
  m_ObjectHideFlags: 0
  m_CorrespondingSourceObject: {fileID: 0}
  m_PrefabInstance: {fileID: 0}
  m_PrefabAsset: {fileID: 0}
  m_GameObject: {fileID: 0}
  m_Enabled: 1
  m_EditorHideFlags: 0
  m_Script: {fileID: 11500000, guid: f8dbc97ad319db74b931db2d9ea387a0, type: 3}
  m_Name: Eyebrows_4
  m_EditorClassIdentifier: 
  indx: 2200000028000000290000002a0000002b000000
  mat: {fileID: 2100000, guid: 64249d145c7a74bc98954a345145610e, type: 2}
