%YAML 1.1
%TAG !u! tag:unity3d.com,2011:
--- !u!114 &11400000
MonoBehaviour:
  m_ObjectHideFlags: 0
  m_CorrespondingSourceObject: {fileID: 0}
  m_PrefabInstance: {fileID: 0}
  m_PrefabAsset: {fileID: 0}
  m_GameObject: {fileID: 0}
  m_Enabled: 1
  m_EditorHideFlags: 0
  m_Script: {fileID: 11500000, guid: acf2c55a2c9a75f4abeed9abf6f554de, type: 3}
  m_Name: Boy_Beard8
  m_EditorClassIdentifier: 
  indx: 08000000
  hair: {fileID: 1912877310273877142, guid: e6798ea0b46a69c4bb9c65530843002c, type: 3}
