%YAML 1.1
%TAG !u! tag:unity3d.com,2011:
--- !u!114 &11400000
MonoBehaviour:
  m_ObjectHideFlags: 0
  m_CorrespondingSourceObject: {fileID: 0}
  m_PrefabInstance: {fileID: 0}
  m_PrefabAsset: {fileID: 0}
  m_GameObject: {fileID: 0}
  m_Enabled: 1
  m_EditorHideFlags: 0
  m_Script: {fileID: 11500000, guid: f8dbc97ad319db74b931db2d9ea387a0, type: 3}
  m_Name: Body_3
  m_EditorClassIdentifier: 
  indx: 070000000800000009000000
  mat: {fileID: 2100000, guid: a6291e8d618604d2d8ba42048e12ad8d, type: 2}
